…
``` r
model_mtcars%>%unnest(tidy)
```

    ## # A tibble: 24 x 7
    ##      cyl modelxy        term     estimate  std.error  statistic
    ##    <dbl>   <chr>       <chr>        <dbl>      <dbl>      <dbl>
    ##  1     6  mpg~wt (Intercept) 28.408844513 4.18436879  6.7892784
    ##  2     6  mpg~wt  .[[x.var]] -2.780105939 1.33491730 -2.0826054
    ##  3     4  mpg~wt (Intercept) 39.571196013 4.34658203  9.1039800
    ##  4     4  mpg~wt  .[[x.var]] -5.647025261 1.85011853 -3.0522505
    ##  5     8  mpg~wt (Intercept) 23.868029076 3.00546186  7.9415511
    ##  6     8  mpg~wt  .[[x.var]] -2.192437926 0.73923934 -2.9658026
    ##  7     6  mpg~hp (Intercept) 20.673851133 3.30442894  6.2564066
    ##  8     6  mpg~hp  .[[x.var]] -0.007613269 0.02657760 -0.2864543
    ##  9     4  mpg~hp (Intercept) 35.983025639 5.20129608  6.9180883
    ## 10     4  mpg~hp  .[[x.var]] -0.112775888 0.06118248 -1.8432709
    ## # ... with 14 more rows, and 1 more variables: p.value <dbl>
…
